Data Exploration for Capstone Project
…
Initial Data Tidying

# Step 1: Cleaning the columns 
corridor_data <- my_data |>
  janitor::clean_names() # clean variable names
# janitor function cleaned the column names by converting them to lowercase and replacing spaces between the words witb underscores

#Step 2: Character variables to numeric data
corridor_data |>
  mutate(
    launch_year = as.numeric(launch_year)  
  ) # convert character columns to numeric type for visualisation 

# A tibble: 184 × 25
   project_code project_name corridor_name infrastructure_devel…¹ status country
   <chr>        <chr>        <chr>         <chr>                  <chr>  <chr>  
 1 AAC0001      Assab-Addis… Assab-Addis … Road                   Opera… Eritre…
 2 AAC0002      Port of Ass… Assab-Addis … Port                   Opera… Eritrea
 3 ABC0001      Abidjan-Bam… Abidjan-Bama… Road                   Upgra… Côte d…
 4 ADC0001      Addis–Djibo… Addis-Djibou… Passenger and freight… Upgra… Djibou…
 5 ADC0002      Port of Dji… Addis-Djibou… Port                   Opera… Djibou…
 6 ADC0003      Ethiopia–Dj… Addis-Djibou… Road                   Upgra… Djibou…
 7 ADC0004      Bole Intern… Addis-Djibou… Airport                Opera… Ethiop…
 8 ALC0001      Abidjan-Lag… Abidjan-Lago… Road                   In pr… Cote d…
 9 AOC0001      Abidjan-Oua… Abidjan-Ouag… Road                   Opera… Côte d…
10 AOC0002      Abidjan-Oua… Abidjan-Ouag… Passenger and freight… Upgra… Côte d…
# ℹ 174 more rows
# ℹ abbreviated name: ¹​infrastructure_development_type
# ℹ 19 more variables: region_or_province <chr>, description <chr>,
#   launch_year <dbl>, usd_amount_million_minimum <chr>,
#   usd_amount_million_maximum <chr>, amount_description <chr>,
#   distance_km_minimum <chr>, distance_km_maximum <chr>, gis_distance <dbl>,
#   area_km2 <chr>, supplier_or_recipient_of_goods_or_services <chr>, …
…
